<svg width="10" height="10" viewBox="0 0 10 10" fill="none" xmlns="http://www.w3.org/2000/svg">
<path d="M6.13154 1.93597L0.323913 7.74223L0 9.99996L2.25827 9.67612L8.0659 3.86987L6.13154 1.93597Z" fill="#ED6257"/>
<path d="M8.38705 0.322517L9.67742 1.61258C9.76298 1.69812 9.81104 1.81413 9.81104 1.9351C9.81104 2.05607 9.76298 2.17208 9.67742 2.25762L8.70964 3.22517L6.77408 1.29007L7.74186 0.322517C7.82742 0.23698 7.94346 0.188926 8.06445 0.188926C8.18545 0.188926 8.30149 0.23698 8.38705 0.322517Z" fill="#ED6257"/>
</svg>
