<svg width="81" height="81" viewBox="0 0 81 81" fill="none" xmlns="http://www.w3.org/2000/svg">
<circle cx="40.5" cy="40.5" r="40" stroke="#D23438"/>
<path d="M57.4269 20H27.5378C25.0269 20 23 22.0593 23 24.5392V56.4167C23.0004 57.0039 23.1184 57.5852 23.3472 58.127C23.5759 58.6688 23.911 59.1604 24.333 59.5733C24.7549 59.9862 25.2554 60.3122 25.8055 60.5326C26.3556 60.753 26.9444 60.8633 27.5378 60.8571H57.4269C58.2619 60.8571 59 60.2375 59 59.4099V21.546C58.9881 21.1379 58.8182 20.7499 58.5254 20.4622C58.2327 20.1745 57.8394 20.009 57.4269 20ZM34.1933 31.1302C34.1916 30.9242 34.2318 30.7199 34.3113 30.5295C34.3909 30.3391 34.5083 30.1664 34.6565 30.0217C34.8048 29.8769 34.9808 29.7631 35.1743 29.687C35.3678 29.6108 35.5748 29.5738 35.783 29.5782H39.1849V26.3501C39.183 26.1436 39.223 25.9388 39.3024 25.7478C39.3818 25.5568 39.499 25.3834 39.6471 25.238C39.7953 25.0925 39.9714 24.9779 40.165 24.9008C40.3587 24.8237 40.5659 24.7857 40.7746 24.7891H41.1679C41.5955 24.7803 42.0091 24.9397 42.3179 25.2324C42.6268 25.5251 42.8056 25.927 42.8151 26.3501V29.5782H46.1595C46.3707 29.5729 46.5809 29.6088 46.7781 29.6839C46.9753 29.759 47.1555 29.8719 47.3085 30.0161C47.4616 30.1602 47.5843 30.3329 47.6698 30.524C47.7553 30.7152 47.8018 30.9212 47.8067 31.1302V31.5238C47.7998 31.9555 47.6246 32.3678 47.3176 32.6746C47.0106 32.9814 46.5957 33.1589 46.1595 33.1701H42.8151V46.3042C42.8151 47.1842 42.0588 47.8367 41.1679 47.8367H40.7746C40.5675 47.8434 40.3611 47.8086 40.1679 47.7344C39.9747 47.6603 39.7986 47.5483 39.6501 47.4052C39.5017 47.2621 39.3839 47.0909 39.304 46.9017C39.2241 46.7125 39.1835 46.5093 39.1849 46.3042V33.1701H35.783C34.8936 33.1701 34.1933 32.4008 34.1933 31.5238V31.1302ZM57.3361 59.2109H27.1234C26.4614 59.2109 25.8266 58.9507 25.3586 58.4876C24.8905 58.0245 24.6276 57.3964 24.6276 56.7415C24.6276 56.0866 24.8905 55.4585 25.3586 54.9954C25.8266 54.5323 26.4614 54.2721 27.1234 54.2721H57.3361V59.2109Z" fill="#D23438"/>
</svg>
